{
  "name": "gis-collective-auth",
  "authors": ["Bogdan Szabo"],
  "description": "Service for accessing site registration process.",
  "copyright": "Copyright © 2019-2020, Bogdan Szabo",
  "license": "MIT",

  "dependencies": {
    "crate": { "path": "./submodules/crate" },
    "ogm-models": { "path": "./submodules/ogm-models" },
    "vibe-service": "*",
    "geo": { "path": "./submodules/geo-d" },
    "vibe-d": "~>0.9.2",
    "hmq": { "path": "./submodules/hmq" },
    "vibe-auth": { "path": "./submodules/vibe-auth" }
  },

  "stringImportPaths": ["./config/about", "./services/auth/views/"],

  "subConfigurations": {
    "d2sqlite3": "with-lib"
  },

  "configurations": [
    {
      "name": "executable-ssl11",
      "versions": ["VibeCustomMain"],
      "targetType": "executable"
    },
    {
      "name": "executable",
      "versions": ["VibeCustomMain"],
      "targetType": "executable"
    },
    {
      "name": "trial",
      "excludedSourceFiles": ["source/app.d"],
      "sourcePaths": ["source", "tests"],
      "importPaths": ["source", "tests"],
      "dependencies": {
        "fluent-asserts": "~>0.13.3",
        "fluent-asserts-vibe": "~>0.1.3",
        "trial": "*"
      }
    }
  ]
}
