{
  "general": {
    "serviceName": "$serviceName",
    "serviceUrl": "$serviceUrl",
    "apiUrl": "$apiUrl",

    "db": "/app/config/db",
    "pidFolder": "./",
    "logLevel": "#logLevel",

    "stats": {
      "interval": 15,
      "pushGatewayUrl": ""
    }
  },

  "http": {
    "hostName": "$HOSTNAME",
    "port": 80,
    "keepAliveTimeout": 60,
    "maxRequestHeaderSize": 8192,
    "maxRequestSize": 2097152,
    "serverString": "auth",
    "webSocketPingInterval": 0
  },

  "httpMq": {
    "url": "$httpMqUrl"
  },

  "templates": "./views",

  "email": {
    "from": "$emailFrom"
  }
}
